%YAML 1.1
%TAG !u! tag:unity3d.com,2011:
--- !u!114 &11400000
MonoBehaviour:
  m_ObjectHideFlags: 0
  m_CorrespondingSourceObject: {fileID: 0}
  m_PrefabInstance: {fileID: 0}
  m_PrefabAsset: {fileID: 0}
  m_GameObject: {fileID: 0}
  m_Enabled: 1
  m_EditorHideFlags: 0
  m_Script: {fileID: 11500000, guid: 5bdb077887e315f4096666307ca94d3a, type: 3}
  m_Name: PlayerParty
  m_EditorClassIdentifier: 
  characters:
  - {fileID: 9502953092065633, guid: 7e2ddc3fdfde53b46bbab0eb0324129d, type: 3}
  - {fileID: 9502953092065633, guid: 7e2ddc3fdfde53b46bbab0eb0324129d, type: 3}
  - {fileID: 9502953092065633, guid: 7e2ddc3fdfde53b46bbab0eb0324129d, type: 3}
  - {fileID: 9502953092065633, guid: 7e2ddc3fdfde53b46bbab0eb0324129d, type: 3}
  - {fileID: 9502953092065633, guid: 7e2ddc3fdfde53b46bbab0eb0324129d, type: 3}
