%YAML 1.1
%TAG !u! tag:unity3d.com,2011:
--- !u!114 &11400000
MonoBehaviour:
  m_ObjectHideFlags: 0
  m_CorrespondingSourceObject: {fileID: 0}
  m_PrefabInstance: {fileID: 0}
  m_PrefabAsset: {fileID: 0}
  m_GameObject: {fileID: 0}
  m_Enabled: 1
  m_EditorHideFlags: 0
  m_Script: {fileID: 11500000, guid: 91727579c8560ae4084597c751970ec9, type: 3}
  m_Name: Standard
  m_EditorClassIdentifier: 
  abilityPriorities:
  - Type: {fileID: 11400000, guid: 525956c3ac399c843b25c59c4a4baa0f, type: 2}
    ChanceToSelect: 0.5
  - Type: {fileID: 11400000, guid: 47241706fffe52c4da96738079bf90df, type: 2}
    ChanceToSelect: 1
  threatDeviation: 100
