%YAML 1.1
%TAG !u! tag:unity3d.com,2011:
--- !u!114 &11400000
MonoBehaviour:
  m_ObjectHideFlags: 0
  m_CorrespondingSourceObject: {fileID: 0}
  m_PrefabInstance: {fileID: 0}
  m_PrefabAsset: {fileID: 0}
  m_GameObject: {fileID: 0}
  m_Enabled: 1
  m_EditorHideFlags: 0
  m_Script: {fileID: 11500000, guid: 460fd312ebcf88d4f897fb5895c769d7, type: 3}
  m_Name: AgilityStatus
  m_EditorClassIdentifier: 
  duration: 1
  tickRate: 0
  allowMultiple: 0
  maxStacks: 1
  startingStacks: 1
  modifiers:
  - {fileID: 11400000, guid: 8254ba47de23fda4bad57f1a5e3be78b, type: 2}
  onApply: []
  onRemove: []
  onTick: []
  persistentSfx: []
  onApplySfx: []
  onTickSfx: []
  onRemoveSfx: []
